Bird talk analysis
…
## [1] 2817

How many per species?

mean(table(birds$LatinSpecies))

## [1] 2.146255

Approximating 2 per species

Look at the ones for which we have most info:

birds %>% count(LatinSpecies, sort = TRUE)

## # A tibble: 2,817 x 2
##    LatinSpecies            n
##    <chr>               <int>
##  1 Hirundo rustica        14
##  2 Phasianus colchicus    14
##  3 Sturnus vulgaris       14
##  4 Tyto alba              14
##  5 Anas platyrhynchos     13
##  6 Cygnus olor            13
##  7 Fulica atra            13
##  8 Passer domesticus      13
##  9 Phalacrocorax carbo    13
## 10 Sterna hirundo         13
## #  with 2,807 more rows
…
nrow(all_tokens)

## [1] 59333

Lemmatize, but not high-pitched, low-pitched and far-carrying:

not_these <- c("high-pitched", "low-pitched", "far-carrying")
all_tokens[!all_tokens$Word %in% not_these, ]$Word <- lemmatize_strings(all_tokens[!all_tokens$Word %in% not_these, ]$Word)

Check most frequent words:

all_counts <- all_tokens %>% count(Word, sort = TRUE)
all_counts %>% print(n = 30)

## # A tibble: 4,214 x 2
##    Word             n
##    <chr>        <int>
##  1 call          4378
##  2 song          2103
##  3 note          1707
##  4 loud          1084
##  5 male          1059
##  6 whistle        961
##  7 flight         762
##  8 harsh          743
##  9 sharp          729
## 10 series         704
## 11 sound          691
## 12 female         595
## 13 soft           560
## 14 trill          551
## 15 sing           522
## 16 low            503
## 17 short          499
## 18 repeat         493
## 19 silent         472
## 20 high-pitched   441
## 21 hear           433
## 22 rapid          430
## 23 utter          414
## 24 alarm          409
## 25 similar        403
## 26 breed          400
## 27 bird           397
## 28 pitch          391
## 29 include        386
## 30 nest           368
## #  with 4,184 more rows
…
Look at standardized residuals:

wallmark$bird_stdres <- chisq.test(select(wallmark, Frequency, n))$stdres[, 2]

## Warning in chisq.test(select(wallmark, Frequency, n)): Chi-squared approximation
## may be incorrect

Sort:

# Most over-represented in bird song:

arrange(wallmark, desc(bird_stdres))

## # A tibble: 50 x 5
##    Word     Frequency PresentYesNo     n bird_stdres
##    <chr>        <dbl> <chr>        <dbl>       <dbl>
##  1 sharp           15 yes            729       19.4 
##  2 soft            45 yes            560       14.2 
##  3 deep            23 yes            285        9.84
##  4 shrill          28 yes            225        7.63
##  5 nasal           61 yes            321        7.38
##  6 metallic        30 yes            198        6.54
##  7 thin            55 yes            245        5.59
##  8 sweet           23 yes            117        4.24
##  9 mellow          41 yes            154        3.64
## 10 weak            22 yes             87        2.89
## #  with 40 more rows

# Most under-represented:

arrange(wallmark, bird_stdres)

## # A tibble: 50 x 5
##    Word        Frequency PresentYesNo     n bird_stdres
##    <chr>           <dbl> <chr>        <dbl>       <dbl>
##  1 brilliant         112 no               0      -15.2 
##  2 dark               84 yes             12      -11.4 
##  3 full               71 yes              5      -11.3 
##  4 sonorous           55 no               0      -10.6 
##  5 penetrating        55 no               0      -10.6 
##  6 bright             65 yes              8      -10.2 
##  7 warm               43 yes              1       -9.15
##  8 piercing           41 no               0       -9.14
##  9 dry                44 yes              4       -8.67
## 10 noble              34 no               0       -8.32
## #  with 40 more rows
…
Get all unique syllables:

all_units <- birds %>% unnest_tokens(Unit, AllOnoms) %>% pull(Unit)
all_units <- tibble(Unit = all_units) %>% filter(!is.na(Unit))

Make a count of this:

unit_count <- all_units %>% count(Unit, sort = TRUE)
unit_count

## # A tibble: 4,198 x 2
##    Unit      n
##    <chr> <int>
##  1 whit    208
##  2 chip    207
##  3 a       171
##  4 r       151
##  5 see     143
##  6 coo     140
##  7 kee     140
##  8 chi     121
##  9 pee     120
## 10 wee     116
## #  with 4,188 more rows
…
